Brendan Cooley – dists
…
cowWarsDyadic <- left_join(cowWars1, cowWars2, by="WarName") %>% select(WarName, ccode1, State1, ccode2, State2, year, lng1, lat1, lng2, lat2)

# calculate distance
latlng1 <- cowWarsDyadic %>% select(lng1, lat1)
latlng2 <- cowWarsDyadic %>% select(lng2, lat2)
cowWarsDyadic$distance <- distVincentySphere(latlng1, latlng2) / 1000  # convert to km

# export data
write_csv(cowWarsDyadic, 'cowWarsDist.csv')

cowWarsDyadic %>% select(WarName, ccode1, State1, ccode2, State2, distance)

## # A tibble: 813 x 6
##    WarName                  ccode1 State1          ccode2 State2    dista…
##    <chr>                     <int> <chr>            <int> <chr>      <dbl>
##  1 Franco-Spanish War          220 France             230 Spain       1054
##  2 Franco-Spanish War          220 France             230 Spain       1054
##  3 First Russo-Turkish         365 Russia             640 Ottoman …   2233
##  4 Mexican-American              2 United States …     70 Mexico      3035
##  5 Austro-Sardinian            300 Austria            337 Tuscany      632
##  6 Austro-Sardinian            300 Austria            325 Italy        765
##  7 Austro-Sardinian            300 Austria            332 Modena       575
##  8 First Schleswig-Holstein    255 Prussia            390 Denmark      356
##  9 First Schleswig-Holstein    255 Prussia            390 Denmark      356
## 10 First Schleswig-Holstein    255 Prussia            390 Denmark      356
## # ... with 803 more rows
…
